{
    "swagger": "2.0",
    "info": {
        "description": "API for todo app",
        "title": "Todo App API",
        "contact": {},
        "version": "0.1"
    },
    "host": "localhost:8888",
    "basePath": "/",
    "paths": {}
}